%YAML 1.1
%TAG !u! tag:unity3d.com,2011:
--- !u!1045 &1
EditorBuildSettings:
  m_ObjectHideFlags: 0
  serializedVersion: 2
  m_Scenes:
  - enabled: 1
    path: Assets/Scenes/Title.unity
    guid: a58bfd7fd70145347adee3320d1fd40a
  - enabled: 1
    path: Assets/Scenes/Game Official.unity
    guid: 4ce4d4d4aeef2e54e97bb40827915db8
  m_configObjects: {}
